<?xml version="1.0" encoding="UTF-8" standalone="no"?>
<!-- Created with Inkscape (http://www.inkscape.org/) -->

<svg
   width="27.999826"
   height="27.999788"
   viewBox="0 0 7.4082874 7.4082773"
   version="1.1"
   id="svg1"
   xml:space="preserve"
   xmlns="http://www.w3.org/2000/svg"
   xmlns:svg="http://www.w3.org/2000/svg"><defs
     id="defs1" /><g
     id="layer1"
     transform="translate(-105.83333,-79.904152)"><rect
       style="fill:#eb0000;stroke-width:0.264581;stroke-linecap:round;stroke-linejoin:round;fill-opacity:1"
       id="rect2"
       width="7.4082875"
       height="7.4082775"
       x="105.83333"
       y="79.904152"
       rx="1.5875" /><g
       id="g3"
       style="stroke-width:19.2726"
       transform="matrix(0.05188724,0,0,0.05188724,103.70114,80.041971)"><path
         d="M 56.389321,68.599829 83.37682,41.61233 h 16.93333 L 82.053904,61.45608 104.80807,60.926913 105.33724,41.61233 h 14.2875 l 0.52916,19.314583 h 22.225 l 0.52917,0.529167 -18.25625,-19.84375 h 16.93333 l 26.9875,26.987499 -26.9875,27.252083 h -16.93333 l 18.25625,-20.108333 -22.75417,0.529167 -0.52916,19.579166 h -14.2875 L 104.80807,76.272746 82.053904,75.743579 100.31015,95.851912 H 83.37682 Z"
         fill="#ffffff"
         id="path3"
         style="stroke-width:5.09919" /></g></g></svg>
