<?xml version="1.0" encoding="UTF-8" standalone="no"?>
<!-- Created with Inkscape (http://www.inkscape.org/) -->

<svg
   width="27.999826"
   height="27.999788"
   viewBox="0 0 7.4082874 7.4082773"
   version="1.1"
   id="svg1"
   inkscape:version="1.3 (0e150ed6c4, 2023-07-21)"
   sodipodi:docname="vor.svg"
   xml:space="preserve"
   xmlns:inkscape="http://www.inkscape.org/namespaces/inkscape"
   xmlns:sodipodi="http://sodipodi.sourceforge.net/DTD/sodipodi-0.dtd"
   xmlns="http://www.w3.org/2000/svg"
   xmlns:svg="http://www.w3.org/2000/svg"><sodipodi:namedview
     id="namedview1"
     pagecolor="#ffffff"
     bordercolor="#000000"
     borderopacity="0.25"
     inkscape:showpageshadow="2"
     inkscape:pageopacity="0.0"
     inkscape:pagecheckerboard="0"
     inkscape:deskcolor="#d1d1d1"
     inkscape:document-units="px"
     inkscape:zoom="15.999999"
     inkscape:cx="19.625001"
     inkscape:cy="7.4375003"
     inkscape:window-width="1920"
     inkscape:window-height="1011"
     inkscape:window-x="0"
     inkscape:window-y="0"
     inkscape:window-maximized="1"
     inkscape:current-layer="layer1"
     showgrid="true"><inkscape:grid
       id="grid6"
       units="px"
       originx="0"
       originy="0"
       spacingx="0.26458333"
       spacingy="0.26458333"
       empcolor="#0099e5"
       empopacity="0.30196078"
       color="#0099e5"
       opacity="0.14902"
       empspacing="5"
       dotted="false"
       gridanglex="30"
       gridanglez="30"
       visible="true" /></sodipodi:namedview><defs
     id="defs1"><clipPath
   clipPathUnits="userSpaceOnUse"
   id="clipPath62542"><path
     d="m 36,36 1818,0 0,1818 -1818,0 0,-1818 z"
     id="path62544"
     inkscape:connector-curvature="0" /></clipPath>&#10;		&#10;		&#10;		&#10;		&#10;	</defs><g
     inkscape:label="Layer 1"
     inkscape:groupmode="layer"
     id="layer1"
     transform="translate(-105.83333,-79.904152)"><rect
       style="fill:#ffffff;stroke-width:0.264581;stroke-linecap:round;stroke-linejoin:round"
       id="rect2"
       width="7.4082875"
       height="7.4082775"
       x="105.83333"
       y="79.904152"
       rx="1.5875" /><g
       id="LOGO"
       transform="matrix(0.26458333,0,0,0.26458333,65.023026,62.758668)">&#10;	<g
   id="g1"
   transform="matrix(3.5460956,0,0,3.5460956,-393.88959,-200.63672)"><path
     id="Pfad_1011"
     class="st1"
     d="m 160.77775,78.801725 c 0,1.236394 -2.86761,2.981892 -3.72998,2.981892 -0.86236,0 1.11172,-1.340293 1.11172,-2.981892 0,-1.6416 -1.97408,-2.981893 -1.11172,-2.981893 0.86237,0 3.72998,1.745498 3.72998,2.981893 z"
     style="stroke-width:0.103899" /></g>&#10;	&#10;</g></g><style
     type="text/css"
     id="style1">&#10;	.st0{fill:#505050;}&#10;	.st1{fill:#99CC00;}&#10;</style></svg>
