<?xml version="1.0" encoding="UTF-8" standalone="no"?>
<!-- Created with Inkscape (http://www.inkscape.org/) -->

<svg
   inkscape:export-ydpi="96"
   inkscape:export-xdpi="96"
   inkscape:export-filename="Template.png"
   width="192"
   height="152"
   id="svg11300"
   sodipodi:version="0.32"
   inkscape:version="1.2.2 (b0a8486541, 2022-12-01)"
   sodipodi:docname="de.schmidhuberj.DieBahn.Source.svg"
   inkscape:output_extension="org.inkscape.output.svg.inkscape"
   version="1.0"
   style="display:inline;enable-background:new"
   viewBox="0 0 192 152"
   xmlns:inkscape="http://www.inkscape.org/namespaces/inkscape"
   xmlns:sodipodi="http://sodipodi.sourceforge.net/DTD/sodipodi-0.dtd"
   xmlns:xlink="http://www.w3.org/1999/xlink"
   xmlns="http://www.w3.org/2000/svg"
   xmlns:svg="http://www.w3.org/2000/svg"
   xmlns:rdf="http://www.w3.org/1999/02/22-rdf-syntax-ns#"
   xmlns:cc="http://creativecommons.org/ns#"
   xmlns:dc="http://purl.org/dc/elements/1.1/">
  <title
     id="title4162">Adwaita Icon Template</title>
  <defs
     id="defs3">
    <linearGradient
       inkscape:collect="always"
       id="linearGradient20891">
      <stop
         style="stop-color:#ed333b;stop-opacity:1;"
         offset="0"
         id="stop20887" />
      <stop
         style="stop-color:#f66151;stop-opacity:1;"
         offset="1"
         id="stop20889" />
    </linearGradient>
    <linearGradient
       inkscape:collect="always"
       id="linearGradient12501">
      <stop
         style="stop-color:#deddda;stop-opacity:1;"
         offset="0"
         id="stop12495" />
      <stop
         style="stop-color:#f6f5f4;stop-opacity:1;"
         offset="0.5"
         id="stop12497" />
      <stop
         style="stop-color:#c0bfbc;stop-opacity:1;"
         offset="1"
         id="stop12499" />
    </linearGradient>
    <linearGradient
       inkscape:collect="always"
       id="linearGradient8459">
      <stop
         style="stop-color:#3d3846;stop-opacity:1;"
         offset="0"
         id="stop8455" />
      <stop
         style="stop-color:#5e5c64;stop-opacity:1;"
         offset="0.5"
         id="stop8463" />
      <stop
         style="stop-color:#3d3846;stop-opacity:1;"
         offset="0.75"
         id="stop8964" />
      <stop
         style="stop-color:#241f31;stop-opacity:1;"
         offset="1"
         id="stop8457" />
    </linearGradient>
    <linearGradient
       id="linearGradient2705"
       inkscape:collect="always">
      <stop
         id="stop2693"
         offset="0"
         style="stop-color:#9a9996;stop-opacity:1;" />
      <stop
         style="stop-color:#deddda;stop-opacity:1;"
         offset="0.03571429"
         id="stop2695" />
      <stop
         id="stop2697"
         offset="0.07136531"
         style="stop-color:#77767b;stop-opacity:1;" />
      <stop
         style="stop-color:#c0bfbc;stop-opacity:1;"
         offset="0.9285714"
         id="stop2699" />
      <stop
         id="stop2701"
         offset="0.96428573"
         style="stop-color:#deddda;stop-opacity:1;" />
      <stop
         id="stop2703"
         offset="1"
         style="stop-color:#9a9996;stop-opacity:1;" />
    </linearGradient>
    <linearGradient
       inkscape:collect="always"
       xlink:href="#linearGradient2705"
       id="linearGradient1388"
       x1="7.999702"
       y1="288.00049"
       x2="120.38383"
       y2="288"
       gradientUnits="userSpaceOnUse" />
    <linearGradient
       inkscape:collect="always"
       xlink:href="#linearGradient12501"
       id="linearGradient1445"
       x1="64"
       y1="200"
       x2="64"
       y2="284"
       gradientUnits="userSpaceOnUse" />
    <linearGradient
       inkscape:collect="always"
       xlink:href="#linearGradient8459"
       id="linearGradient8461"
       x1="48"
       y1="220"
       x2="48"
       y2="252"
       gradientUnits="userSpaceOnUse"
       gradientTransform="translate(0,-8)" />
    <linearGradient
       inkscape:collect="always"
       xlink:href="#linearGradient12501"
       id="linearGradient12563"
       x1="64"
       y1="199.99969"
       x2="64"
       y2="284"
       gradientUnits="userSpaceOnUse" />
    <linearGradient
       inkscape:collect="always"
       xlink:href="#linearGradient20891"
       id="linearGradient20893"
       x1="64"
       y1="268"
       x2="64"
       y2="256"
       gradientUnits="userSpaceOnUse" />
  </defs>
  <sodipodi:namedview
     stroke="#ef2929"
     fill="#f57900"
     id="base"
     pagecolor="#ffffff"
     bordercolor="#666666"
     borderopacity="0.25490196"
     inkscape:pageopacity="0.0"
     inkscape:pageshadow="2"
     inkscape:zoom="3.1578947"
     inkscape:cx="96.108333"
     inkscape:cy="76"
     inkscape:current-layer="layer9"
     showgrid="false"
     inkscape:grid-bbox="true"
     inkscape:document-units="px"
     inkscape:showpageshadow="false"
     inkscape:window-width="1280"
     inkscape:window-height="731"
     inkscape:window-x="0"
     inkscape:window-y="0"
     width="400px"
     height="300px"
     inkscape:snap-nodes="true"
     inkscape:snap-bbox="true"
     objecttolerance="7"
     gridtolerance="12"
     guidetolerance="13"
     inkscape:window-maximized="1"
     inkscape:pagecheckerboard="false"
     showguides="false"
     inkscape:guide-bbox="true"
     inkscape:locked="false"
     inkscape:measure-start="0,0"
     inkscape:measure-end="0,0"
     inkscape:object-nodes="true"
     inkscape:bbox-nodes="true"
     inkscape:snap-global="true"
     inkscape:object-paths="true"
     inkscape:snap-intersection-paths="true"
     inkscape:snap-bbox-edge-midpoints="true"
     inkscape:snap-bbox-midpoints="true"
     showborder="true"
     inkscape:snap-center="true"
     inkscape:snap-object-midpoints="true"
     inkscape:snap-midpoints="true"
     inkscape:snap-smooth-nodes="true"
     inkscape:snap-text-baseline="true"
     borderlayer="true"
     inkscape:deskcolor="#d1d1d1">
    <inkscape:grid
       type="xygrid"
       id="grid5883"
       spacingx="2"
       spacingy="2"
       enabled="true"
       visible="true"
       empspacing="4"
       originx="8"
       originy="8" />
    <sodipodi:guide
       position="72,16"
       orientation="0,1"
       id="guide1073"
       inkscape:locked="false"
       inkscape:label=""
       inkscape:color="rgb(0,0,255)" />
    <sodipodi:guide
       position="20,72"
       orientation="1,0"
       id="guide1075"
       inkscape:locked="false"
       inkscape:label=""
       inkscape:color="rgb(0,0,255)" />
    <sodipodi:guide
       position="72,112"
       orientation="0,1"
       id="guide1099"
       inkscape:locked="false"
       inkscape:label=""
       inkscape:color="rgb(0,0,255)" />
    <sodipodi:guide
       position="72,136"
       orientation="0,1"
       id="guide993"
       inkscape:locked="false"
       inkscape:label=""
       inkscape:color="rgb(0,0,255)" />
    <sodipodi:guide
       position="112,72"
       orientation="1,0"
       id="guide995"
       inkscape:locked="false"
       inkscape:label=""
       inkscape:color="rgb(0,0,255)" />
    <sodipodi:guide
       position="8.0000001,72"
       orientation="1,0"
       id="guide867"
       inkscape:locked="false"
       inkscape:label=""
       inkscape:color="rgb(0,0,255)" />
    <sodipodi:guide
       position="128,72"
       orientation="1,0"
       id="guide869"
       inkscape:locked="false"
       inkscape:label=""
       inkscape:color="rgb(0,0,255)" />
    <sodipodi:guide
       position="72,124"
       orientation="0,1"
       id="guide871"
       inkscape:locked="false"
       inkscape:label=""
       inkscape:color="rgb(0,0,255)" />
    <inkscape:grid
       type="xygrid"
       id="grid873"
       spacingx="1"
       spacingy="1"
       empspacing="8"
       color="#000000"
       opacity="0.49019608"
       empcolor="#000000"
       empopacity="0.08627451"
       dotted="true"
       originx="8"
       originy="8" />
    <sodipodi:guide
       position="32,72"
       orientation="1,0"
       id="guide877"
       inkscape:locked="false"
       inkscape:label=""
       inkscape:color="rgb(0,0,255)" />
    <sodipodi:guide
       position="124,72"
       orientation="1,0"
       id="guide879"
       inkscape:locked="false"
       inkscape:label=""
       inkscape:color="rgb(0,0,255)" />
    <sodipodi:guide
       position="72,128"
       orientation="0,1"
       id="guide881"
       inkscape:locked="false"
       inkscape:label=""
       inkscape:color="rgb(0,0,255)" />
    <sodipodi:guide
       position="72,20"
       orientation="0,1"
       id="guide883"
       inkscape:locked="false"
       inkscape:label=""
       inkscape:color="rgb(0,0,255)" />
    <sodipodi:guide
       position="16,72"
       orientation="1,0"
       id="guide885"
       inkscape:locked="false"
       inkscape:label=""
       inkscape:color="rgb(0,0,255)" />
    <sodipodi:guide
       position="136,72"
       orientation="1,0"
       id="guide887"
       inkscape:locked="false"
       inkscape:label=""
       inkscape:color="rgb(0,0,255)" />
    <sodipodi:guide
       position="72,8"
       orientation="0,1"
       id="guide897"
       inkscape:locked="false"
       inkscape:label=""
       inkscape:color="rgb(0,0,255)" />
    <sodipodi:guide
       position="72,32"
       orientation="0,1"
       id="guide899"
       inkscape:locked="false"
       inkscape:label=""
       inkscape:color="rgb(0,0,255)" />
    <sodipodi:guide
       position="264,264"
       orientation="-0.70710678,0.70710678"
       id="guide950"
       inkscape:locked="false"
       inkscape:label=""
       inkscape:color="rgb(0,0,255)" />
    <sodipodi:guide
       position="72,72"
       orientation="0.70710678,0.70710678"
       id="guide952"
       inkscape:locked="false"
       inkscape:label=""
       inkscape:color="rgb(0,0,255)" />
  </sodipodi:namedview>
  <metadata
     id="metadata4">
    <rdf:RDF>
      <cc:Work
         rdf:about="">
        <dc:format>image/svg+xml</dc:format>
        <dc:type
           rdf:resource="http://purl.org/dc/dcmitype/StillImage" />
        <dc:creator>
          <cc:Agent>
            <dc:title>GNOME Design Team</dc:title>
          </cc:Agent>
        </dc:creator>
        <dc:source />
        <cc:license
           rdf:resource="http://creativecommons.org/licenses/by-sa/4.0/" />
        <dc:title>Adwaita Icon Template</dc:title>
        <dc:subject>
          <rdf:Bag />
        </dc:subject>
        <dc:date />
        <dc:rights>
          <cc:Agent>
            <dc:title />
          </cc:Agent>
        </dc:rights>
        <dc:publisher>
          <cc:Agent>
            <dc:title />
          </cc:Agent>
        </dc:publisher>
        <dc:identifier />
        <dc:relation />
        <dc:language />
        <dc:coverage />
        <dc:description />
        <dc:contributor>
          <cc:Agent>
            <dc:title />
          </cc:Agent>
        </dc:contributor>
      </cc:Work>
      <cc:License
         rdf:about="http://creativecommons.org/licenses/by-sa/4.0/">
        <cc:permits
           rdf:resource="http://creativecommons.org/ns#Reproduction" />
        <cc:permits
           rdf:resource="http://creativecommons.org/ns#Distribution" />
        <cc:requires
           rdf:resource="http://creativecommons.org/ns#Notice" />
        <cc:requires
           rdf:resource="http://creativecommons.org/ns#Attribution" />
        <cc:permits
           rdf:resource="http://creativecommons.org/ns#DerivativeWorks" />
        <cc:requires
           rdf:resource="http://creativecommons.org/ns#ShareAlike" />
      </cc:License>
    </rdf:RDF>
  </metadata>
  <g
     id="layer1"
     inkscape:label="App Icon"
     inkscape:groupmode="layer"
     style="display:inline"
     transform="translate(8,-156)">
    <g
       inkscape:groupmode="layer"
       id="layer4"
       inkscape:label="template"
       style="display:inline"
       sodipodi:insensitive="true">
      <rect
         inkscape:label="0"
         y="172"
         x="9.2651362e-08"
         height="128"
         width="128"
         id="hicolor"
         style="display:inline;overflow:visible;visibility:visible;fill:#f0f0f0;fill-opacity:0;fill-rule:nonzero;stroke:none;stroke-width:0.5;marker:none;enable-background:accumulate" />
      <rect
         style="display:inline;overflow:visible;visibility:visible;fill:#f0f0f0;fill-opacity:0;fill-rule:nonzero;stroke:none;stroke-width:0.5;marker:none;enable-background:accumulate"
         id="symbolic"
         width="16"
         height="16"
         x="160"
         y="172"
         inkscape:label="0" />
    </g>
    <g
       inkscape:groupmode="layer"
       id="layer2"
       inkscape:label="baseplate"
       style="display:inline"
       sodipodi:insensitive="true">
      <g
         style="display:inline;fill:#000000;enable-background:new"
         transform="matrix(7.9911709,0,0,8.0036407,-167.7909,-4846.0776)"
         id="g12027"
         inkscape:export-xdpi="12"
         inkscape:export-ydpi="12" />
      <rect
         style="display:inline;overflow:visible;visibility:visible;fill:#f0f0f0;fill-opacity:1;fill-rule:nonzero;stroke:none;stroke-width:0.5;marker:none;enable-background:accumulate"
         id="128"
         width="128"
         height="128"
         x="9.2651362e-08"
         y="172"
         inkscape:label="0" />
      <g
         id="g883"
         style="fill:none;fill-opacity:0.25098;stroke:#a579b3;stroke-opacity:1"
         transform="translate(-24,24)" />
      <g
         id="g900"
         style="fill:none;fill-opacity:0.25098;stroke:#a579b3;stroke-opacity:1"
         transform="translate(-24,24)" />
      <rect
         inkscape:label=""
         y="172"
         x="160"
         height="16"
         width="16"
         id="16"
         style="display:inline;overflow:visible;visibility:visible;fill:#f0f0f0;fill-opacity:1;fill-rule:nonzero;stroke:none;stroke-width:0.5;marker:none;enable-background:accumulate" />
      <text
         xml:space="preserve"
         style="font-style:normal;font-variant:normal;font-weight:bold;font-stretch:normal;font-size:4px;line-height:125%;font-family:Cantarell;-inkscape-font-specification:'Cantarell, Bold';text-align:start;writing-mode:lr-tb;text-anchor:start;display:inline;fill:#000000;fill-opacity:1;stroke:none;stroke-width:0.332649;enable-background:new"
         x="0"
         y="167"
         id="text863"
         inkscape:label="icon-name"><tspan
           style="font-size:4px;stroke-width:0.332649"
           sodipodi:role="line"
           id="tspan861"
           x="0"
           y="167">Hicolor</tspan></text>
      <text
         inkscape:label="icon-name"
         id="text867"
         y="167"
         x="160"
         style="font-style:normal;font-variant:normal;font-weight:bold;font-stretch:normal;font-size:4px;line-height:125%;font-family:Cantarell;-inkscape-font-specification:'Cantarell, Bold';text-align:start;writing-mode:lr-tb;text-anchor:start;display:inline;fill:#000000;fill-opacity:1;stroke:none;stroke-width:0.332649;enable-background:new"
         xml:space="preserve"><tspan
           y="167"
           x="160"
           id="tspan865"
           sodipodi:role="line"
           style="font-size:4px;stroke-width:0.332649">Symbolic</tspan></text>
    </g>
    <g
       inkscape:groupmode="layer"
       id="layer9"
       inkscape:label="icons"
       style="display:inline">
      <path
         id="path826"
         style="display:inline;vector-effect:none;fill:url(#linearGradient1388);fill-opacity:1;stroke-width:0.25;marker:none;marker-start:none;marker-mid:none;marker-end:none;enable-background:new"
         d="m 120,276 v 4 c 0,4.432 -3.568,8 -8,8 H 16 c -4.432,0 -8,-3.568 -8,-8 v -4 z"
         sodipodi:nodetypes="csssscc" />
      <path
         id="rect746"
         style="display:inline;vector-effect:none;fill:url(#linearGradient1445);stroke-width:0.25;marker:none;marker-start:none;marker-mid:none;marker-end:none;enable-background:new;fill-opacity:1"
         d="m 16,200 h 64 c 4.432,0 6.112868,3.98984 8,8 l 32,68 c 1.88713,4.01016 -3.568,8 -8,8 H 16 c -4.432,0 -8,-3.568 -8,-8 v -68 c 0,-4.432 3.568,-8 8,-8 z"
         sodipodi:nodetypes="sssssssss" />
      <path
         id="path3560"
         style="display:inline;vector-effect:none;fill:#ffffff;stroke-width:0.25;marker:none;marker-start:none;marker-mid:none;marker-end:none;enable-background:new;fill-opacity:0.2"
         d="M 16 200 C 11.568004 200 8 203.568 8 208 L 8 210 C 8 205.568 11.568004 202 16 202 L 80 202 C 84.431996 202 86.11287 205.98984 88 210 L 120 278 C 120.10387 278.22072 120.1775 278.44022 120.23828 278.66016 C 120.46316 277.8038 120.42535 276.90387 120 276 L 88 208 C 86.11287 203.98984 84.431996 200 80 200 L 16 200 z " />
      <path
         id="path3565"
         style="display:inline;vector-effect:none;fill:#000000;stroke-width:0.25;marker:none;marker-start:none;marker-mid:none;marker-end:none;enable-background:new;fill-opacity:0.2"
         d="M 8 274 L 8 276 C 8 280.432 11.568004 284 16 284 L 112 284 C 116.18806 284 121.28173 280.43611 120.23828 276.66016 C 119.46546 279.60314 115.43305 282 112 282 L 16 282 C 11.568004 282 8 278.432 8 274 z " />
      <path
         id="rect4594"
         style="fill:#5e5c64;fill-opacity:1;stroke-width:2;stroke-linecap:round;stroke-linejoin:round"
         d="m 48,280 2,8 H 16 c -4.432,0 -8,-3.568 -8,-8 z"
         sodipodi:nodetypes="ccscc" />
      <rect
         style="fill:#77767b;fill-opacity:1;stroke-width:2.82841;stroke-linecap:round;stroke-linejoin:round"
         id="rect18482"
         width="32"
         height="8"
         x="12"
         y="278"
         rx="2"
         ry="2" />
      <rect
         style="fill:#9a9996;fill-opacity:1;stroke-width:2.82841;stroke-linecap:round;stroke-linejoin:round"
         id="rect13554"
         width="32"
         height="8"
         x="12"
         y="276"
         rx="2"
         ry="2" />
      <circle
         style="fill:#241f31;fill-opacity:1;stroke-width:2;stroke-linecap:round;stroke-linejoin:round"
         id="circle6728"
         cx="28"
         cy="280"
         r="12" />
      <circle
         style="fill:#3d3846;fill-opacity:1;stroke-width:2;stroke-linecap:round;stroke-linejoin:round"
         id="circle6730"
         cx="28"
         cy="278"
         r="12" />
      <circle
         style="fill:#5e5c64;fill-opacity:1;stroke-width:1.5;stroke-linecap:round;stroke-linejoin:round"
         id="circle18484"
         cx="28"
         cy="278"
         r="9" />
      <path
         id="path6732"
         style="fill:#ffffff;fill-opacity:0.1;stroke-width:2;stroke-linecap:round;stroke-linejoin:round"
         d="M 39.941406,277.82422 A 12,12 0 0 1 28,289 12,12 0 0 1 16.072266,278 12,12 0 0 0 16,279 a 12,12 0 0 0 12,12 12,12 0 0 0 12,-12 12,12 0 0 0 -0.05859,-1.17578 z" />
      <path
         id="rect7287"
         style="fill:#000000;fill-opacity:0.2;stroke-width:2;stroke-linecap:round;stroke-linejoin:round"
         d="m 8,278 v 2 c 0,0.69208 0.096052,1.36035 0.2597656,2 H 48.5 L 48,280 Z"
         sodipodi:nodetypes="cscccc" />
      <path
         style="fill:url(#linearGradient8461);fill-opacity:1;stroke-width:2;stroke-linecap:round;stroke-linejoin:round"
         d="m 8,212 h 68 c 2.451464,0 4.692526,1.38505 5.788854,3.57771 l 12.422292,24.84458 C 95.03301,242.06602 93.837742,244 92,244 H 8 Z"
         id="path8345"
         sodipodi:nodetypes="ccccccc" />
      <rect
         style="fill:url(#linearGradient12563);fill-opacity:1;stroke-width:2;stroke-linecap:round;stroke-linejoin:round"
         id="rect12555"
         width="40"
         height="16"
         x="8"
         y="264" />
      <path
         id="rect11451"
         style="fill:url(#linearGradient20893);fill-opacity:1;stroke-width:2;stroke-linecap:round;stroke-linejoin:round"
         d="M 8 256 L 8 268 L 116.23438 268 L 110.58789 256 L 8 256 z " />
      <path
         id="path14207"
         style="fill:#241f31;fill-opacity:1;stroke-width:2;stroke-linecap:round;stroke-linejoin:round"
         d="M 8 212 L 8 214 L 76 214 C 78.451462 214 80.692736 215.38547 81.789062 217.57812 L 94.210938 242.42188 C 94.227296 242.45459 94.231323 242.48856 94.246094 242.52148 C 94.529903 241.88391 94.564587 241.12918 94.210938 240.42188 L 81.789062 215.57812 C 80.692736 213.38547 78.451462 212 76 212 L 8 212 z " />
      <g
         id="g21078">
        <path
           style="color:#000000;fill:#241f31;stroke-linecap:round;stroke-linejoin:round;-inkscape-stroke:none"
           d="m 161,174 a 1,1 0 0 0 -1,1 1,1 0 0 0 1,1 h 9.32227 l 3.20117,8 H 161 a 1,1 0 0 0 -1,1 1,1 0 0 0 1,1 h 14 a 1.0001,1.0001 0 0 0 0.92773,-1.37109 l -4,-10 A 1.0001,1.0001 0 0 0 171,174 Z"
           id="path17190" />
        <path
           style="fill:#241f31;fill-opacity:1;stroke:none;stroke-width:2;stroke-linecap:round;stroke-linejoin:round"
           d="m 161.49398,177 h 8.2288 l 1.20044,3 h -9.42924 C 160.66888,180 160,179.33112 160,178.50602 v -0.012 C 159.99998,177.6689 160.66886,177 161.49398,177 Z"
           id="path17194"
           sodipodi:nodetypes="cccccsc" />
        <path
           style="fill:#241f31;fill-opacity:0.35;stroke:none;stroke-width:2;stroke-linecap:round;stroke-linejoin:round"
           d="m 160.9818,181 10.34106,1e-5 L 172.12315,183 H 160.9818 C 160.43957,183 160,182.56043 160,182.0182 v -0.0364 C 160,181.43957 160.43957,181 160.9818,181 Z"
           id="path19631"
           sodipodi:nodetypes="cccccsc" />
      </g>
    </g>
    <g
       inkscape:groupmode="layer"
       id="layer3"
       inkscape:label="grid"
       style="display:none"
       sodipodi:insensitive="true">
      <circle
         cx="64.000031"
         cy="236"
         r="59.504131"
         id="circle2892"
         style="display:inline;opacity:0.1;vector-effect:none;fill:none;fill-opacity:1;stroke:#000000;stroke-width:0.99;stroke-linecap:butt;stroke-linejoin:miter;stroke-miterlimit:4;stroke-dasharray:0.99, 0.99;stroke-dashoffset:0;stroke-opacity:1;marker:none;marker-start:none;marker-mid:none;marker-end:none;paint-order:normal;enable-background:new" />
      <rect
         ry="7.9292889"
         rx="8.701004"
         y="180.49496"
         x="20.495007"
         height="111.01005"
         width="87.009987"
         id="rect2894"
         style="display:inline;opacity:0.1;vector-effect:none;fill:none;fill-opacity:1;stroke:#000000;stroke-width:0.99;stroke-linecap:butt;stroke-linejoin:miter;stroke-miterlimit:4;stroke-dasharray:0.99, 0.99;stroke-dashoffset:0;stroke-opacity:1;marker:none;marker-start:none;marker-mid:none;marker-end:none;paint-order:normal;enable-background:new" />
      <rect
         ry="7.9238095"
         rx="7.9238095"
         y="184.49524"
         x="12.495266"
         height="103.00952"
         width="103.00952"
         id="rect2896"
         style="display:inline;opacity:0.1;vector-effect:none;fill:none;fill-opacity:1;stroke:#000000;stroke-width:0.99;stroke-linecap:butt;stroke-linejoin:miter;stroke-miterlimit:4;stroke-dasharray:0.99, 0.99;stroke-dashoffset:0;stroke-opacity:1;marker:none;marker-start:none;marker-mid:none;marker-end:none;paint-order:normal;enable-background:new" />
      <rect
         ry="8.701005"
         rx="7.9292889"
         y="200.49496"
         x="8.4950066"
         height="87.010048"
         width="111.01004"
         id="rect2898"
         style="display:inline;opacity:0.1;vector-effect:none;fill:none;fill-opacity:1;stroke:#000000;stroke-width:0.99;stroke-linecap:butt;stroke-linejoin:miter;stroke-miterlimit:4;stroke-dasharray:0.99, 0.99;stroke-dashoffset:0;stroke-opacity:1;marker:none;marker-start:none;marker-mid:none;marker-end:none;paint-order:normal;enable-background:new" />
      <path
         inkscape:connector-curvature="0"
         id="path2900"
         d="M 2.6203015e-5,288.99999 H 128.00003"
         style="display:inline;fill:none;stroke:#62a0ea;stroke-width:2;stroke-linecap:butt;stroke-linejoin:miter;stroke-miterlimit:4;stroke-dasharray:none;stroke-opacity:1;enable-background:new" />
    </g>
  </g>
</svg>
